{
  "layout":{
    "children":[
      {
        "children":[
          {
            "children":[],
            "cls":"starling.display.Sprite",
            "customParams":{},
            "params":{
              "name":"_takeGiveComponent",
              "x":43
            }
          },
          {
            "cls":"feathers.controls.Button",
            "customParams":{},
            "params":{
              "label":"ЗАКРЫТЬ",
              "name":"_close2Button",
              "styleName":"pinkOkButton",
              "y":5
            }
          }
        ],
        "cls":"feathers.controls.LayoutGroup",
        "customParams":{},
        "params":{
          "layout":{
            "cls":"feathers.layout.VerticalLayout",
            "constructorParams":[],
            "customParams":{},
            "params":{
              "gap":5,
              "horizontalAlign":"center"
            }
          },
          "name":"_contentLayout"
        }
      }
    ],
    "cls":"starling.display.Sprite",
    "customParams":{},
    "params":{
      "name":"root"
    }
  },
  "setting":{
    "canvasColor":16777215,
    "canvasSize":{
      "x":500,
      "y":330
    }
  },
  "version":"2.0"
}