{
  "layout":{
    "children":[
      {
        "cls":"feathers.controls.ImageLoader",
        "customParams":{},
        "params":{
          "name":"imageLoader",
          "source":null,
          "x":2,
          "y":2
        }
      },
      {
        "cls":"starling.display.Image",
        "constructorParams":[
          {
            "cls":"starling.textures.Texture",
            "textureName":"window/light_border"
          }
        ],
        "customParams":{},
        "params":{
          "name":"window/light_border",
          "scale9Grid":{
            "cls":"flash.geom.Rectangle",
            "customParams":{},
            "params":{
              "height":2,
              "width":2,
              "x":4,
              "y":4
            }
          },
          "scaleX":5,
          "scaleY":5
        }
      },
      {
        "cls":"starling.text.TextField",
        "constructorParams":[
          {
            "value":200
          },
          {
            "value":100
          },
          {
            "value":""
          }
        ],
        "customParams":{},
        "params":{
          "batchable":true,
          "format":{
            "cls":"starling.text.TextFormat",
            "customParams":{},
            "params":{
              "color":16777215,
              "font":"Arial",
              "horizontalAlign":"left",
              "size":14
            }
          },
          "height":21,
          "name":"countLabel",
          "text":"Abc",
          "width":44,
          "x":3,
          "y":29
        }
      }
    ],
    "cls":"starling.display.Sprite",
    "customParams":{},
    "params":{
      "name":"root"
    }
  },
  "setting":{
    "canvasColor":11998647,
    "canvasSize":{
      "x":100,
      "y":100
    }
  },
  "version":"2.0"
}