{
  "layout":{
    "children":[
      {
        "children":[
          {
            "cls":"feathers.controls.ImageLoader",
            "customParams":{},
            "params":{
              "name":"_imageLoader",
              "source":null,
              "x":1,
              "y":1
            }
          },
          {
            "cls":"starling.display.Image",
            "constructorParams":[
              {
                "cls":"starling.textures.Texture",
                "textureName":"window/light_border"
              }
            ],
            "customParams":{},
            "params":{
              "name":"window/light_border",
              "scale9Grid":{
                "cls":"flash.geom.Rectangle",
                "customParams":{},
                "params":{
                  "height":2,
                  "width":2,
                  "x":4,
                  "y":4
                }
              },
              "scaleX":6.8,
              "scaleY":6.8
            }
          },
          {
            "cls":"starling.text.TextField",
            "constructorParams":[
              {
                "value":200
              },
              {
                "value":100
              },
              {
                "value":""
              }
            ],
            "customParams":{},
            "params":{
              "autoScale":true,
              "batchable":true,
              "format":{
                "cls":"starling.text.TextFormat",
                "customParams":{},
                "params":{
                  "color":16704332,
                  "font":"Franklin Gothic Medium",
                  "horizontalAlign":"left",
                  "size":16,
                  "verticalAlign":"bottom"
                }
              },
              "height":25,
              "name":"_countLabel",
              "text":"Abc123",
              "width":61,
              "x":4,
              "y":42
            }
          }
        ],
        "cls":"starling.display.Sprite",
        "customParams":{},
        "params":{
          "name":"_artikulSprite",
          "x":8
        }
      },
      {
        "children":[
          {
            "cls":"starling.display.Image",
            "constructorParams":[
              {
                "cls":"starling.textures.Texture",
                "textureName":"repair/price_slot"
              }
            ],
            "customParams":{},
            "params":{
              "name":"repair/price_slot",
              "scaleX":0.7,
              "x":2,
              "y":19
            }
          },
          {
            "cls":"starling.display.Image",
            "constructorParams":[
              {
                "cls":"starling.textures.Texture",
                "textureName":"main/crystal_icon"
              }
            ],
            "customParams":{},
            "params":{
              "name":"_moneyImage",
              "x":57,
              "y":18
            }
          },
          {
            "cls":"starling.text.TextField",
            "constructorParams":[
              {
                "value":200
              },
              {
                "value":100
              },
              {
                "value":""
              }
            ],
            "customParams":{},
            "params":{
              "autoScale":true,
              "format":{
                "cls":"starling.text.TextFormat",
                "customParams":{},
                "params":{
                  "color":16704332,
                  "font":"Franklin Gothic Medium",
                  "size":24
                }
              },
              "height":35,
              "name":"_moneyLabel",
              "text":"1150",
              "width":63,
              "x":1,
              "y":16
            }
          }
        ],
        "cls":"starling.display.Sprite",
        "customParams":{},
        "params":{
          "name":"_moneySprite"
        }
      }
    ],
    "cls":"starling.display.Sprite",
    "customParams":{},
    "params":{
      "name":"root"
    }
  },
  "setting":{
    "canvasColor":15422932,
    "canvasSize":{
      "x":150,
      "y":150
    }
  },
  "version":"2.0"
}