{
  "layout":{
    "children":[
      {
        "cls":"starling.display.Image",
        "constructorParams":[
          {
            "cls":"starling.textures.Texture",
            "textureName":"inventory/alert/element/dark"
          }
        ],
        "customParams":{},
        "params":{
          "name":"elementIcon",
          "y":4
        }
      },
      {
        "cls":"starling.display.Image",
        "constructorParams":[
          {
            "cls":"starling.textures.Texture",
            "textureName":"inventory/alert/stat_line"
          }
        ],
        "customParams":{},
        "params":{
          "name":"inventory/alert/stat_line",
          "x":19,
          "y":6
        }
      },
      {
        "cls":"starling.text.TextField",
        "constructorParams":[
          {
            "value":200
          },
          {
            "value":100
          },
          {
            "value":""
          }
        ],
        "customParams":{},
        "params":{
          "batchable":true,
          "format":{
            "cls":"starling.text.TextFormat",
            "customParams":{},
            "params":{
              "color":524310,
              "font":"Arial",
              "size":13
            }
          },
          "height":20,
          "name":"damageLabel",
          "text":"Abc123",
          "width":85,
          "x":19,
          "y":6
        }
      },
      {
        "cls":"starling.text.TextField",
        "constructorParams":[
          {
            "value":200
          },
          {
            "value":100
          },
          {
            "value":""
          }
        ],
        "customParams":{},
        "params":{
          "batchable":true,
          "format":{
            "cls":"starling.text.TextFormat",
            "customParams":{},
            "params":{
              "color":524310,
              "font":"Arial",
              "size":13
            }
          },
          "height":20,
          "name":"protectionLabel",
          "text":"Abc123",
          "width":92,
          "x":104,
          "y":6
        }
      }
    ],
    "cls":"starling.display.Sprite",
    "customParams":{},
    "params":{
      "name":"root"
    }
  },
  "setting":{
    "canvasColor":16777215,
    "canvasSize":{
      "x":300,
      "y":300
    }
  },
  "version":"2.0"
}