{
  "layout":{
    "children":[
      {
        "cls":"starling.display.Image",
        "constructorParams":[
          {
            "cls":"starling.textures.Texture",
            "textureName":"inventory/tooltip_back"
          }
        ],
        "customParams":{},
        "params":{
          "name":"_backgroundImage",
          "scaleX":3.96,
          "scaleY":1.73,
          "tileGrid":{
            "cls":"flash.geom.Rectangle",
            "customParams":{},
            "params":{}
          },
          "x":12,
          "y":36
        }
      },
      {
        "cls":"starling.display.Image",
        "constructorParams":[
          {
            "cls":"starling.textures.Texture",
            "textureName":"inventory/tooltip_frame"
          }
        ],
        "customParams":{},
        "params":{
          "name":"_borderImage",
          "scale9Grid":{
            "cls":"flash.geom.Rectangle",
            "customParams":{},
            "params":{
              "height":31.2,
              "width":20.4,
              "x":40.8,
              "y":31.2
            }
          },
          "scaleX":2.94,
          "scaleY":1.44,
          "y":24
        }
      },
      {
        "cls":"starling.display.Image",
        "constructorParams":[
          {
            "cls":"starling.textures.Texture",
            "textureName":"inventory/tooltip_itemrarity"
          }
        ],
        "customParams":{},
        "params":{
          "name":"_itemRarity",
          "scaleX":1.26,
          "scaleY":5.67,
          "x":7,
          "y":33
        }
      },
      {
        "cls":"feathers.controls.ImageLoader",
        "customParams":{},
        "params":{
          "name":"_imageLoader",
          "source":null,
          "x":117,
          "y":2
        }
      },
      {
        "cls":"starling.display.Image",
        "constructorParams":[
          {
            "cls":"starling.textures.Texture",
            "textureName":"inventory/tooltip_item_frame"
          }
        ],
        "customParams":{},
        "params":{
          "name":"inventory/tooltip_item_frame",
          "x":115
        }
      },
      {
        "cls":"starling.text.TextField",
        "constructorParams":[
          {
            "value":200
          },
          {
            "value":100
          },
          {
            "value":""
          }
        ],
        "customParams":{},
        "params":{
          "format":{
            "cls":"starling.text.TextFormat",
            "customParams":{},
            "params":{
              "color":16765076,
              "font":"Franklin Gothic Medium",
              "size":16
            }
          },
          "height":30,
          "name":"_titleLabel",
          "text":"Abc123",
          "width":281,
          "x":10,
          "y":70
        }
      },
      {
        "children":[
          {
            "cls":"starling.display.Button",
            "constructorParams":[
              {
                "cls":"starling.textures.Texture",
                "textureName":"inventory/alert/button/use_up"
              }
            ],
            "customParams":{},
            "params":{
              "downState":{
                "cls":"starling.textures.Texture",
                "textureName":"inventory/alert/button/use_down"
              },
              "height":43,
              "name":"_useButton",
              "scaleWhenDown":1,
              "textFormat":{
                "cls":"starling.text.TextFormat",
                "constructorParams":[],
                "customParams":{},
                "params":{}
              },
              "width":42,
              "x":38,
              "y":4
            }
          },
          {
            "cls":"starling.display.Button",
            "constructorParams":[
              {
                "cls":"starling.textures.Texture",
                "textureName":"inventory/alert/button/left_up"
              }
            ],
            "customParams":{},
            "params":{
              "downState":{
                "cls":"starling.textures.Texture",
                "textureName":"inventory/alert/button/left_down"
              },
              "height":43,
              "name":"_slotButton",
              "pivotX":21,
              "scaleWhenDown":1,
              "textFormat":{
                "cls":"starling.text.TextFormat",
                "constructorParams":[],
                "customParams":{},
                "params":{}
              },
              "width":42,
              "x":101,
              "y":4
            }
          },
          {
            "cls":"starling.display.Button",
            "constructorParams":[
              {
                "cls":"starling.textures.Texture",
                "textureName":"inventory/alert/button/repair_up"
              }
            ],
            "customParams":{},
            "params":{
              "downState":{
                "cls":"starling.textures.Texture",
                "textureName":"inventory/alert/button/repair_down"
              },
              "height":43,
              "name":"_repairButton",
              "scaleWhenDown":1,
              "textFormat":{
                "cls":"starling.text.TextFormat",
                "constructorParams":[],
                "customParams":{},
                "params":{}
              },
              "width":42,
              "x":122,
              "y":4
            }
          },
          {
            "cls":"starling.display.Button",
            "constructorParams":[
              {
                "cls":"starling.textures.Texture",
                "textureName":"inventory/alert/button/sell_up"
              }
            ],
            "customParams":{},
            "params":{
              "downState":{
                "cls":"starling.textures.Texture",
                "textureName":"inventory/alert/button/sell_down"
              },
              "height":43,
              "name":"_sellButton",
              "scaleWhenDown":1,
              "textFormat":{
                "cls":"starling.text.TextFormat",
                "constructorParams":[],
                "customParams":{},
                "params":{}
              },
              "width":42,
              "x":164,
              "y":4
            }
          },
          {
            "cls":"starling.display.Button",
            "constructorParams":[
              {
                "cls":"starling.textures.Texture",
                "textureName":"inventory/alert/button/trash_up"
              }
            ],
            "customParams":{},
            "params":{
              "downState":{
                "cls":"starling.textures.Texture",
                "textureName":"inventory/alert/button/trash_down"
              },
              "height":43,
              "name":"_deleteButton",
              "scaleWhenDown":1,
              "textFormat":{
                "cls":"starling.text.TextFormat",
                "constructorParams":[],
                "customParams":{},
                "params":{}
              },
              "width":42,
              "x":206,
              "y":4
            }
          }
        ],
        "cls":"feathers.controls.LayoutGroup",
        "customParams":{},
        "params":{
          "backgroundSkin":{
            "cls":"starling.display.Image",
            "constructorParams":[
              {
                "cls":"starling.textures.Texture",
                "textureName":"inventory/alert/button_bg"
              }
            ],
            "customParams":{},
            "params":{
              "name":null,
              "scaleX":6.36,
              "tileGrid":{
                "cls":"flash.geom.Rectangle",
                "constructorParams":[],
                "customParams":{},
                "params":{
                  "height":47,
                  "width":45
                }
              }
            }
          },
          "layout":{
            "cls":"feathers.layout.HorizontalLayout",
            "customParams":{},
            "params":{
              "horizontalAlign":"center",
              "verticalAlign":"bottom"
            }
          },
          "name":"_buttonLayoutGroup",
          "width":286,
          "x":7,
          "y":101
        }
      },
      {
        "children":[
          {
            "children":[
              {
                "children":[
                  {
                    "cls":"starling.text.TextField",
                    "constructorParams":[
                      {
                        "value":200
                      },
                      {
                        "value":100
                      },
                      {
                        "value":""
                      }
                    ],
                    "customParams":{},
                    "params":{
                      "autoSize":"bothDirections",
                      "batchable":true,
                      "format":{
                        "cls":"starling.text.TextFormat",
                        "customParams":{},
                        "params":{
                          "color":3154717,
                          "font":"Franklin Gothic Heavy",
                          "size":13
                        }
                      },
                      "height":19,
                      "name":"moneyTitle",
                      "text":"Цена:",
                      "width":35
                    }
                  }
                ],
                "cls":"feathers.controls.LayoutGroup",
                "customParams":{},
                "params":{
                  "layout":{
                    "cls":"feathers.layout.HorizontalLayout",
                    "constructorParams":[],
                    "customParams":{},
                    "params":{
                      "gap":5
                    }
                  },
                  "name":"_moneyGroup"
                }
              },
              {
                "cls":"starling.text.TextField",
                "constructorParams":[
                  {
                    "value":200
                  },
                  {
                    "value":100
                  },
                  {
                    "value":""
                  }
                ],
                "customParams":{},
                "params":{
                  "autoSize":"vertical",
                  "format":{
                    "cls":"starling.text.TextFormat",
                    "customParams":{},
                    "params":{
                      "color":3154717,
                      "font":"Franklin Gothic Medium",
                      "horizontalAlign":"left",
                      "size":13
                    }
                  },
                  "height":21,
                  "name":"_skillsLabel",
                  "text":"Abc123",
                  "width":249,
                  "y":19
                }
              },
              {
                "cls":"starling.text.TextField",
                "constructorParams":[
                  {
                    "value":200
                  },
                  {
                    "value":100
                  },
                  {
                    "value":""
                  }
                ],
                "customParams":{},
                "params":{
                  "autoSize":"bothDirections",
                  "batchable":true,
                  "format":{
                    "cls":"starling.text.TextFormat",
                    "customParams":{},
                    "params":{
                      "color":15927,
                      "font":"Franklin Gothic Heavy",
                      "size":13
                    }
                  },
                  "height":19,
                  "name":"_weightyTitle",
                  "text":"Занимает место в сумке",
                  "width":139,
                  "y":40
                }
              },
              {
                "cls":"starling.text.TextField",
                "constructorParams":[
                  {
                    "value":200
                  },
                  {
                    "value":100
                  },
                  {
                    "value":""
                  }
                ],
                "customParams":{},
                "params":{
                  "autoSize":"bothDirections",
                  "batchable":true,
                  "format":{
                    "cls":"starling.text.TextFormat",
                    "customParams":{},
                    "params":{
                      "color":11216128,
                      "font":"Franklin Gothic Heavy",
                      "size":13
                    }
                  },
                  "height":19,
                  "name":"_repairTitle",
                  "text":"Вещь требует ремонта",
                  "width":130,
                  "y":59
                }
              }
            ],
            "cls":"feathers.controls.LayoutGroup",
            "customParams":{},
            "params":{
              "layout":{
                "cls":"feathers.layout.VerticalLayout",
                "customParams":{},
                "params":{}
              },
              "name":"infoGroup",
              "x":10,
              "y":10
            }
          },
          {
            "children":[],
            "cls":"feathers.controls.LayoutGroup",
            "customParams":{},
            "params":{
              "layout":{
                "cls":"feathers.layout.VerticalLayout",
                "customParams":{},
                "params":{
                  "gap":3,
                  "horizontalAlign":"center"
                }
              },
              "name":"_hpGroup",
              "width":266,
              "x":10,
              "y":88
            }
          },
          {
            "children":[
              {
                "cls":"starling.text.TextField",
                "constructorParams":[
                  {
                    "value":200
                  },
                  {
                    "value":100
                  },
                  {
                    "value":""
                  }
                ],
                "customParams":{},
                "params":{
                  "batchable":true,
                  "format":{
                    "cls":"starling.text.TextFormat",
                    "customParams":{},
                    "params":{
                      "color":7752758,
                      "font":"Franklin Gothic Medium",
                      "size":14
                    }
                  },
                  "height":19,
                  "name":"_titleDamageLabel",
                  "text":"УРОН",
                  "width":85,
                  "x":54
                }
              },
              {
                "cls":"starling.text.TextField",
                "constructorParams":[
                  {
                    "value":200
                  },
                  {
                    "value":100
                  },
                  {
                    "value":""
                  }
                ],
                "customParams":{},
                "params":{
                  "batchable":true,
                  "format":{
                    "cls":"starling.text.TextFormat",
                    "customParams":{},
                    "params":{
                      "color":7752758,
                      "font":"Franklin Gothic Medium",
                      "size":14
                    }
                  },
                  "height":19,
                  "name":"_titleProtectedLabel",
                  "text":"ЗАЩИТА",
                  "width":85,
                  "x":141
                }
              }
            ],
            "cls":"feathers.controls.LayoutGroup",
            "customParams":{},
            "params":{
              "name":"_titleStatGroup",
              "width":266,
              "x":10,
              "y":88
            }
          },
          {
            "children":[],
            "cls":"feathers.controls.LayoutGroup",
            "customParams":{},
            "params":{
              "layout":{
                "cls":"feathers.layout.VerticalLayout",
                "customParams":{},
                "params":{
                  "gap":3,
                  "horizontalAlign":"center"
                }
              },
              "name":"_statGroup",
              "width":266,
              "x":10,
              "y":107
            }
          },
          {
            "cls":"feathers.controls.Check",
            "customParams":{},
            "params":{
              "label":"Показать диапазон значений",
              "name":"_checkBox",
              "styleName":"artikulCheck",
              "x":10,
              "y":107
            }
          }
        ],
        "cls":"feathers.controls.LayoutGroup",
        "customParams":{},
        "params":{
          "layout":{
            "cls":"feathers.layout.VerticalLayout",
            "constructorParams":[],
            "customParams":{},
            "params":{
              "padding":10
            }
          },
          "name":"_layoutGroup",
          "x":7,
          "y":140
        }
      },
      {
        "cls":"starling.display.Button",
        "constructorParams":[
          {
            "cls":"starling.textures.Texture",
            "textureName":"buttons/exit_up"
          }
        ],
        "customParams":{},
        "params":{
          "downState":{
            "cls":"starling.textures.Texture",
            "textureName":"buttons/exit_down"
          },
          "height":38,
          "name":"_closeButton",
          "scaleWhenDown":1,
          "textFormat":{
            "cls":"starling.text.TextFormat",
            "constructorParams":[],
            "customParams":{},
            "params":{}
          },
          "width":38,
          "x":270,
          "y":14
        }
      }
    ],
    "cls":"starling.display.Sprite",
    "customParams":{},
    "params":{
      "name":"root"
    }
  },
  "setting":{
    "canvasColor":16777215,
    "canvasSize":{
      "x":330,
      "y":300
    }
  },
  "version":"2.0"
}