{
  "layout":{
    "children":[
      {
        "cls":"starling.display.Image",
        "constructorParams":[
          {
            "cls":"starling.textures.Texture",
            "textureName":"inventory/tooltip_itemrarity"
          }
        ],
        "customParams":{},
        "params":{
          "name":"itemRarity",
          "scaleX":0.57,
          "scaleY":3.75,
          "y":15
        }
      },
      {
        "cls":"feathers.controls.ImageLoader",
        "customParams":{},
        "params":{
          "name":"imageLoader",
          "source":null,
          "x":49,
          "y":1
        }
      },
      {
        "cls":"starling.text.TextField",
        "constructorParams":[
          {
            "value":200
          },
          {
            "value":100
          },
          {
            "value":""
          }
        ],
        "customParams":{},
        "params":{
          "format":{
            "cls":"starling.text.TextFormat",
            "customParams":{},
            "params":{
              "color":16765076,
              "font":"Myriad Pro",
              "size":14
            }
          },
          "height":26,
          "name":"titleLabel",
          "text":"Abc123",
          "width":130,
          "y":35
        }
      },
      {
        "cls":"starling.display.Image",
        "constructorParams":[
          {
            "cls":"starling.textures.Texture",
            "textureName":"window/light_border"
          }
        ],
        "customParams":{},
        "params":{
          "name":"window/light_border",
          "scale9Grid":{
            "cls":"flash.geom.Rectangle",
            "customParams":{},
            "params":{
              "height":4,
              "width":4,
              "x":3,
              "y":3
            }
          },
          "scaleX":3.4,
          "scaleY":3.4,
          "x":48
        }
      }
    ],
    "cls":"starling.display.Sprite",
    "customParams":{},
    "params":{
      "name":"root"
    }
  },
  "setting":{
    "canvasColor":33979,
    "canvasSize":{
      "x":130,
      "y":60
    }
  },
  "version":"2.0"
}